Anxious Twitting: Decoding the Cyber-Phenotype of Anxiety
…
##             Df     Sum Sq    Mean Sq F value Pr(>F)  
## Condition    1  370543250  370543250    14.8  0.162  
## day_weekday  1 2207261342 2207261342    88.0  0.068 .
## Residuals    1   25085072   25085072                 
## ---
## Signif. codes:  0 '***' 0.001 '**' 0.01 '*' 0.05 '.' 0.1 ' ' 1

Time of day by condition

## # A tibble: 24 x 3
##     hour Anxious Healthy
##    <int>   <int>   <int>
##  1     0    4680    6827
##  2     1    4321    7325
##  3     2    4145    7244
##  4     3    3510    7422
##  5     4    3330    7011
##  6     5    2710    5396
##  7     6    2501    4381
##  8     7    2205    4305
##  9     8    1857    4597
## 10     9    1987    5107
## # ... with 14 more rows
…
Naive Bayes

## # A tibble: 2 x 6
##   .metric  .estimator  mean     n std_err .config             
##   <chr>    <chr>      <dbl> <int>   <dbl> <chr>               
## 1 accuracy binary     0.817    10  0.0211 Preprocessor1_Model1
## 2 roc_auc  binary     0.880    10  0.0192 Preprocessor1_Model1

## # A tibble: 386 x 7
##    id     .pred_Anxious .pred_Healthy  .row .pred_class Condition .config       
##    <chr>          <dbl>         <dbl> <int> <fct>       <fct>     <chr>         
##  1 Fold01         0.937      6.29e- 2     1 Anxious     Anxious   Preprocessor1~
##  2 Fold01         0.622      3.78e- 1    21 Anxious     Anxious   Preprocessor1~
##  3 Fold01         1          3.97e-17    37 Anxious     Anxious   Preprocessor1~
##  4 Fold01         1          5.85e-17    51 Anxious     Anxious   Preprocessor1~
##  5 Fold01         0.456      5.44e- 1    57 Healthy     Anxious   Preprocessor1~
##  6 Fold01         0.527      4.73e- 1    92 Anxious     Anxious   Preprocessor1~
##  7 Fold01         0.559      4.41e- 1    93 Anxious     Anxious   Preprocessor1~
##  8 Fold01         0.791      2.09e- 1   102 Anxious     Anxious   Preprocessor1~
##  9 Fold01         0.999      1.04e- 3   123 Anxious     Anxious   Preprocessor1~
## 10 Fold01         0.909      9.13e- 2   126 Anxious     Anxious   Preprocessor1~
## # ... with 376 more rows
…
